{
  "schema_url": "https://gitlab.com/cyverse/cacao-common/-/raw/master/template/metadata-schemas/v3/schema.json",
  "schema_version": "3",
  "name": "prerequisite openstack",
  "author": "Edwin Skidmore",
  "author_email": "edwin@cyverse.org",
  "description": "prerequisite template for openstack",
  "template_type": "openstack_terraform",
  "purpose": "general",
  "cacao_pre_tasks": [],
  "cacao_post_tasks": [
    {
      "type": "ansible",
      "location": "cacao_atmosphere_legacy"
    }
  ],
  "parameters": [
    {
      "name": "region",
      "type": "cacao_provider_region",
      "default": "IU",
      "description": "Openstack region"
    },
    {
      "name": "external_network_uuid",
      "type": "string",
      "description": "External network UUID"
    },
    {
      "name": "keypair_name",
      "type": "string",
      "default": "cacao-ssh-key",
      "description": "Key-pair name"
    },
    {
      "name": "public_ssh_key",
      "type": "string",
      "description": "Public SSH key"
    },
    {
      "name": "tenant_cidr",
      "type": "string",
      "default": "10.0.0.0/24",
      "description": "Tenant CIDR"
    },
    {
      "name": "username",
      "type": "string",
      "description": "CACAO username"
    }
  ]
}
