{
  "schema_url": "https://gitlab.com/cyverse/cacao-common/-/raw/master/template/metadata-schemas/v3/schema.json",
  "schema_version": "3",
  "name": "deployment with application proxy and each vm is duplicated",
  "author": "Edwin Skidmore",
  "author_email": "edwin@cyverse.org",
  "description": "launch one or more deployments with application proxy and identical configuration",
  "template_type": "openstack_terraform",
  "purpose": "openstack_compute",
  "cacao_pre_tasks": [],
  "cacao_post_tasks": [
    {
      "type": "ansible",
      "location": "cacao_atmosphere_legacy"
    }
  ],
  "parameters": [
    {
      "name": "username",
      "type": "cacao_username_unix",
      "default": "username",
      "description": "CACAO username"
    },
    {
      "name": "region",
      "type": "cacao_provider_region",
      "default": "IU",
      "description": "Openstack region"
    },
    {
      "name": "instance_name",
      "type": "string",
      "description": "Instance name",
      "editable": true
    },
    {
      "name": "instance_count",
      "type": "integer",
      "default": 1,
      "description": "# of instances",
      "editable": true
    },
    {
      "name": "image",
      "type": "cacao_provider_image",
      "description": "Boot image id",
      "default": ""
    },
    {
      "name": "image_name",
      "type": "cacao_provider_image_name",
      "description": "Boot image name",
      "default": ""
    },
    {
      "name": "flavor",
      "type": "cacao_provider_flavor",
      "description": "Instance type"
    },
    {
      "name": "project",
      "type": "cacao_provider_project",
      "description": "OpenStack Project ID"
    },
    {
      "name": "keypair",
      "type": "cacao_provider_key_pair",
      "default": "cacao-ssh-key",
      "description": "Key-pair for instance access"
    },
    {
      "name": "power_state",
      "type": "string",
      "default": "active",
      "enum": ["active", "shutoff", "suspend", "shelved_offloaded"],
      "description": "Power state",
      "editable": true
    },
    {
      "name": "ip_pool",
      "type": "cacao_provider_external_network",
      "default": "external_network_name",
      "description": "IP pool"
    },
    {
      "name": "user_data",
      "type": "cacao_cloud_init",
      "description": "cloud init script"
    },
    {
      "name": "root_storage_source",
      "type": "string",
      "default": "image",
      "enum": ["image"],
      "description": "Source of root disk; currently, only image is supported "
    },
    {
      "name": "root_storage_type",
      "type": "string",
      "default": "local",
      "enum": ["local", "volume"],
      "description": "type of root storage, either local or volume"
    },
    {
      "name": "root_storage_size",
      "type": "integer",
      "description": "Size of root storage in GB",
      "default": -1
    },
    {
      "name": "root_storage_delete_on_termination",
      "type": "bool",
      "description": "if true, will delete the root storage when instance is deleted",
      "default": true
    },
    {
      "name": "proxy_auth_type",
      "type": "string",
      "description": "Proxy authentication type, either apitoken or basicauth",
      "enum": ["apitoken", "basicauth"],
      "default": "apitoken"
    },
    {
      "name": "proxy_target_host",
      "type": "string",
      "description": "Proxy target ip address",
      "default": "127.0.0.1"
    },
    {
      "name": "proxy_target_port",
      "type": "string",
      "description": "Proxy target ip port",
      "default": "8080"
    },
    {
      "name": "proxy_auth_user",
      "type": "string",
      "description": "Proxy basicauth username, used only when proxy_auth_type = basicauth",
      "default": "appuser"
    },
    {
      "name": "proxy_auth_pass",
      "type": "string",
      "description": "Proxy basicauth password, used only when proxy_auth_type = basicauth",
      "default": ""
    },
    {
      "name": "proxy_api_token",
      "type": "string",
      "description": "Proxy api token, used only when proxy_auth_type = apitoken",
      "default": ""
    }
  ]
}
